{
  "streams": [
    {
      "tap_stream_id": "users",
      "replication_method": "FULL_TABLE",
      "key_properties": [
        "id"
      ],
      "schema": {
        "properties": {
          "name": {
            "type": [
              "string",
              "null"
            ]
          },
          "created_at": {
            "description": "User created at",
            "format": "date-time",
            "type": [
              "string",
              "null"
            ]
          },
          "email": {
            "description": "The user's email address",
            "type": [
              "string",
              "null"
            ]
          },
          "email_verified": {
            "description": "The user's email address has been verified or not.",
            "type": [
              "string",
              "null"
            ]
          },
          "identities": {
            "items": {
              "properties": {
                "user_id": {
                  "type": [
                    "string",
                    "null"
                  ]
                },
                "provider": {
                  "type": [
                    "string",
                    "null"
                  ]
                },
                "connection": {
                  "type": [
                    "string",
                    "null"
                  ]
                },
                "isSocial": {
                  "type": [
                    "string",
                    "null"
                  ]
                }
              },
              "type": "object"
            },
            "type": [
              "array",
              "null"
            ]
          },
          "last_password_reset": {
            "format": "date-time",
            "type": [
              "string",
              "null"
            ]
          },
          "nickname": {
            "type": [
              "string",
              "null"
            ]
          },
          "picture": {
            "type": [
              "string",
              "null"
            ]
          },
          "updated_at": {
            "format": "date-time",
            "type": [
              "string",
              "null"
            ]
          },
          "user_id": {
            "type": [
              "string",
              "null"
            ]
          }
        },
        "type": "object"
      },
      "stream": "users",
      "metadata": [
        {
          "breadcrumb": [
            "properties",
            "name"
          ],
          "metadata": {
            "inclusion": "available",
            "selected": true
          }
        },
        {
          "breadcrumb": [
            "properties",
            "created_at"
          ],
          "metadata": {
            "inclusion": "available",
            "selected": true
          }
        },
        {
          "breadcrumb": [
            "properties",
            "email"
          ],
          "metadata": {
            "inclusion": "available",
            "selected": true
          }
        },
        {
          "breadcrumb": [
            "properties",
            "email_verified"
          ],
          "metadata": {
            "inclusion": "available",
            "selected": true
          }
        },
        {
          "breadcrumb": [
            "properties",
            "identities"
          ],
          "metadata": {
            "inclusion": "available",
            "selected": true
          }
        },
        {
          "breadcrumb": [
            "properties",
            "last_password_reset"
          ],
          "metadata": {
            "inclusion": "available",
            "selected": true
          }
        },
        {
          "breadcrumb": [
            "properties",
            "nickname"
          ],
          "metadata": {
            "inclusion": "available",
            "selected": true
          }
        },
        {
          "breadcrumb": [
            "properties",
            "picture"
          ],
          "metadata": {
            "inclusion": "available",
            "selected": true
          }
        },
        {
          "breadcrumb": [
            "properties",
            "updated_at"
          ],
          "metadata": {
            "inclusion": "available",
            "selected": true
          }
        },
        {
          "breadcrumb": [
            "properties",
            "user_id"
          ],
          "metadata": {
            "inclusion": "available",
            "selected": true
          }
        },
        {
          "breadcrumb": [],
          "metadata": {
            "inclusion": "available",
            "selected": true,
            "table-key-properties": [
              "id"
            ]
          }
        }
      ]
    }
  ]
}